<?xml version="1.0" encoding="UTF-8" standalone="no"?>
<!-- SPDX-FileCopyrightText: Copyright (C) 2018-2023 Uwe Klotz <uwedotklotzatgmaildotcom> et al. -->
<!-- SPDX-License-Identifier: CC0-1.0 -->

<svg
   width="220mm"
   height="220.00002mm"
   viewBox="0 0 220 220.00002"
   version="1.1"
   id="svg5"
   xmlns="http://www.w3.org/2000/svg"
   xmlns:svg="http://www.w3.org/2000/svg">
  <defs
     id="defs2" />
  <g
     id="layer1"
     transform="translate(5.0000001,-33.999999)">
    <text
       xml:space="preserve"
       style="font-style:normal;font-variant:normal;font-weight:normal;font-stretch:normal;font-size:271.576px;line-height:493.775px;font-family:Inter;-inkscape-font-specification:'Inter, Normal';font-variant-ligatures:normal;font-variant-caps:normal;font-variant-numeric:normal;font-variant-east-asian:normal;letter-spacing:0px;word-spacing:0px;fill:#1a1a1a;stroke:#000000;stroke-width:0.264583px;stroke-linecap:butt;stroke-linejoin:miter;stroke-opacity:1"
       x="14.513798"
       y="254.14993"
       id="text286"
       transform="scale(1.0318759,0.96910879)"><tspan
         id="tspan284"
         style="font-style:normal;font-variant:normal;font-weight:normal;font-stretch:normal;font-size:271.576px;font-family:Inter;-inkscape-font-specification:'Inter, Normal';font-variant-ligatures:normal;font-variant-caps:normal;font-variant-numeric:normal;font-variant-east-asian:normal;fill:#1a1a1a;stroke-width:0.264583px"
         x="14.513798"
         y="254.14993">ἀ</tspan></text>
  </g>
</svg>
